%YAML 1.1
%TAG !u! tag:unity3d.com,2011:
--- !u!114 &11400000
MonoBehaviour:
  m_ObjectHideFlags: 0
  m_PrefabParentObject: {fileID: 0}
  m_PrefabInternal: {fileID: 0}
  m_GameObject: {fileID: 0}
  m_Enabled: 1
  m_EditorHideFlags: 0
  m_Script: {fileID: 11500000, guid: c0539884696d77641947eed1959eba02, type: 3}
  m_Name: SpiderClips
  m_EditorClassIdentifier: 
  Clips:
  - {fileID: 8300000, guid: 6e877e236fb86e447957bbebc4c764ee, type: 3}
  - {fileID: 8300000, guid: 85a864e518673f54b9be64974e75d786, type: 3}
  - {fileID: 8300000, guid: b4f0e840d26c6b5499ed0cd8f2ba51c9, type: 3}
  - {fileID: 8300000, guid: d76a1b3a222052442a013a2dfcf957ad, type: 3}
  - {fileID: 8300000, guid: ef5da319beb3b4a4f823608b7aae2ed1, type: 3}
