%YAML 1.1
%TAG !u! tag:unity3d.com,2011:
--- !u!114 &11400000
MonoBehaviour:
  m_ObjectHideFlags: 0
  m_PrefabParentObject: {fileID: 0}
  m_PrefabInternal: {fileID: 0}
  m_GameObject: {fileID: 0}
  m_Enabled: 1
  m_EditorHideFlags: 0
  m_Script: {fileID: 11500000, guid: c0539884696d77641947eed1959eba02, type: 3}
  m_Name: UziClips
  m_EditorClassIdentifier: 
  Clips:
  - {fileID: 8300000, guid: 67056e46b29ed8d499744f4ceeda915a, type: 3}
