%YAML 1.1
%TAG !u! tag:unity3d.com,2011:
--- !u!114 &11400000
MonoBehaviour:
  m_ObjectHideFlags: 0
  m_PrefabParentObject: {fileID: 0}
  m_PrefabInternal: {fileID: 0}
  m_GameObject: {fileID: 0}
  m_Enabled: 1
  m_EditorHideFlags: 0
  m_Script: {fileID: 11500000, guid: fb8366ea2c44d2948a4334dc20be99eb, type: 3}
  m_Name: Level14 - Rocket Launcher 3
  m_EditorClassIdentifier: 
  ID: 14
  Enemies:
  - EnemyToSpawn: {fileID: 1787756800941590, guid: 0525d746a815fd8469dff1722f7036c5,
      type: 2}
    Count: 5
  - EnemyToSpawn: {fileID: 1940568321279610, guid: 19d567c5bdf69cc4eb7305e0f4508901,
      type: 2}
    Count: 30
  SpidersNest: []
  ExplosiveBarrelsCount: 50
  CampfiresCount: 5
  MinesCount: 5
  LevelName: Rocket launcher 3
  SpawnWeapons: 0
  SpawnCollectables: 1
  CanChangeWeapon: 0
  WeaponPreset:
    ChangeWeapon: 1
    WeaponType: 4
    AmmoCount: 100
