%YAML 1.1
%TAG !u! tag:unity3d.com,2011:
--- !u!114 &11400000
MonoBehaviour:
  m_ObjectHideFlags: 0
  m_PrefabParentObject: {fileID: 0}
  m_PrefabInternal: {fileID: 0}
  m_GameObject: {fileID: 0}
  m_Enabled: 1
  m_EditorHideFlags: 0
  m_Script: {fileID: 11500000, guid: fb8366ea2c44d2948a4334dc20be99eb, type: 3}
  m_Name: Level22
  m_EditorClassIdentifier: 
  ID: 22
  Enemies:
  - EnemyToSpawn: {fileID: 1787756800941590, guid: 8e236dddcd45f2f44815cd00a478d6ab,
      type: 2}
    Count: 5
  - EnemyToSpawn: {fileID: 1007825808256396, guid: 2aa7409246cece94cba6d6e3c379269a,
      type: 2}
    Count: 5
  - EnemyToSpawn: {fileID: 1772133142095894, guid: 604a78953ba7da745af69f2f26a242f4,
      type: 2}
    Count: 20
  - EnemyToSpawn: {fileID: 1940568321279610, guid: d0af63484ef426e44b1c7b345af8fa5b,
      type: 2}
    Count: 20
  SpidersNest:
  - SpawnedEnemy: {fileID: 1940568321279610, guid: d0af63484ef426e44b1c7b345af8fa5b,
      type: 2}
    RespawnTime: 10
    Count: 1
  ExplosiveBarrelsCount: 30
  CampfiresCount: 15
  MinesCount: 5
  LevelName: 22
  SpawnWeapons: 1
  SpawnCollectables: 1
  CanChangeWeapon: 1
  WeaponPreset:
    ChangeWeapon: 0
    WeaponType: 2
    AmmoCount: 300
