%YAML 1.1
%TAG !u! tag:unity3d.com,2011:
--- !u!114 &11400000
MonoBehaviour:
  m_ObjectHideFlags: 0
  m_PrefabParentObject: {fileID: 0}
  m_PrefabInternal: {fileID: 0}
  m_GameObject: {fileID: 0}
  m_Enabled: 1
  m_EditorHideFlags: 0
  m_Script: {fileID: 11500000, guid: fb8366ea2c44d2948a4334dc20be99eb, type: 3}
  m_Name: Level4
  m_EditorClassIdentifier: 
  ID: 4
  Enemies:
  - EnemyToSpawn: {fileID: 1787756800941590, guid: da0ee2bf6ef925a419c9be77725eddac,
      type: 2}
    Count: 20
  - EnemyToSpawn: {fileID: 1629549473325742, guid: 53ba8b798afa6444fa2e3bd59fd7b5c9,
      type: 2}
    Count: 20
  - EnemyToSpawn: {fileID: 1693128129995912, guid: d311de70c2b1a084fb731b348f385732,
      type: 2}
    Count: 20
  SpidersNest: []
  ExplosiveBarrelsCount: 10
  CampfiresCount: 5
  MinesCount: 5
  LevelName: 4
  SpawnWeapons: 1
  SpawnCollectables: 1
  CanChangeWeapon: 1
  WeaponPreset:
    ChangeWeapon: 0
    WeaponType: 0
    AmmoCount: 100
