%YAML 1.1
%TAG !u! tag:unity3d.com,2011:
--- !u!114 &11400000
MonoBehaviour:
  m_ObjectHideFlags: 0
  m_PrefabParentObject: {fileID: 0}
  m_PrefabInternal: {fileID: 0}
  m_GameObject: {fileID: 0}
  m_Enabled: 1
  m_EditorHideFlags: 0
  m_Script: {fileID: 11500000, guid: fb8366ea2c44d2948a4334dc20be99eb, type: 3}
  m_Name: Level18 - Uzi 3
  m_EditorClassIdentifier: 
  ID: 18
  Enemies:
  - EnemyToSpawn: {fileID: 1007825808256396, guid: b6ecf44829f92b4448d591f2cdd359a4,
      type: 2}
    Count: 10
  - EnemyToSpawn: {fileID: 1772133142095894, guid: 604a78953ba7da745af69f2f26a242f4,
      type: 2}
    Count: 45
  - EnemyToSpawn: {fileID: 1940568321279610, guid: caa3530681bd2b44b87cb3ed7e39c99a,
      type: 2}
    Count: 20
  SpidersNest: []
  ExplosiveBarrelsCount: 30
  CampfiresCount: 5
  MinesCount: 5
  LevelName: Uzi 3
  SpawnWeapons: 0
  SpawnCollectables: 1
  CanChangeWeapon: 0
  WeaponPreset:
    ChangeWeapon: 1
    WeaponType: 1
    AmmoCount: 500
